…
```r
devtools::install_github("ropenscilabs/nneo")
```


```r
library("nneo")
```

## list products


```r
nneo_products()
#> # A tibble: 184 x 14
#>      keywords productStatus
#>  *     <list>         <chr>
#>  1  <chr [8]>        FUTURE
#>  2     <NULL>        FUTURE
#>  3 <chr [20]>        FUTURE
#>  4  <chr [8]>        ACTIVE
#>  5  <chr [8]>        FUTURE
#>  6 <chr [12]>        ACTIVE
#>  7     <NULL>        ACTIVE
#>  8  <chr [4]>        FUTURE
#>  9  <chr [6]>        FUTURE
#> 10  <chr [9]>        FUTURE
#> # ... with 174 more rows, and 12 more variables: productDescription <chr>,
#> #   productCode <chr>, productCategory <chr>, themes <list>,
#> #   productScienceTeam <chr>, productName <chr>,
#> #   productCodePresentation <chr>, productScienceTeamAbbr <chr>,
#> #   productCodeLong <chr>, specs <list>, productHasExpanded <lgl>,
#> #   siteCodes <list>
```

## list sites


```r
nneo_sites()
#> # A tibble: 81 x 11
#>                          siteDescription siteLongitude    siteType
#>  *                                 <chr>         <dbl>       <chr>
#>  1                          Jornada LTER    -106.84254 RELOCATABLE
#>  2                      Oksrukuyik Creek    -149.14302        CORE
#>  3                             Lewis Run     -77.98322 RELOCATABLE
#>  4        Wind River Experimental Forest    -121.95191        CORE
#>  5     Ordway-Swisher Biological Station     -81.99343        CORE
#>  6                LBJ National Grassland     -97.57000        CORE
#>  7                                 Healy    -149.21334 RELOCATABLE
#>  8 Niwot Ridge Mountain Research Station    -105.58237        CORE
#>  9                       Red Butte Creek    -111.79765        CORE
#> 10                             Hop Brook     -72.32963        CORE
#> # ... with 71 more rows, and 8 more variables: stateName <chr>,
#> #   stateCode <chr>, siteLatitude <dbl>, domainName <chr>,
#> #   domainCode <chr>, siteCode <chr>, dataProducts <list>, siteName <chr>
```
…
